<?xml version="1.0" encoding="UTF-8"?>
<svg width="256px" height="256px" viewBox="0 0 256 256" version="1.1" xmlns="http://www.w3.org/2000/svg" xmlns:xlink="http://www.w3.org/1999/xlink">
    <!-- Generator: Sketch 47.1 (45422) - http://www.bohemiancoding.com/sketch -->
    <title>Artboard</title>
    <desc>Created with Sketch.</desc>
    <defs></defs>
    <g id="Page-1" stroke="none" stroke-width="1" fill="none" fill-rule="evenodd">
        <g id="Artboard" fill="#232C3D">
            <g id="Group" transform="translate(28.000000, 0.000000)">
                <path d="M152.830189,109.573111 L152.830189,57.9804911 C152.830189,51.9920941 147.988803,47.1698114 142.016651,47.1698114 L133.455046,47.1698114 C127.491843,47.1698114 122.641508,52.0099176 122.641508,57.9804911 L122.641508,119.377999 C122.641508,121.807342 123.438268,124.044774 124.784049,125.846201 C121.566319,127.403199 118.332727,128.87623 115.094341,130.269819 L115.094341,76.8484157 C115.094341,70.8600186 110.252954,66.0377359 104.280803,66.0377359 L95.7191973,66.0377359 C89.7559946,66.0377359 84.9056595,70.8778422 84.9056595,76.8484157 L84.9056595,138.245924 C84.9056595,139.214497 85.0323135,140.152565 85.2699162,141.044657 C81.967573,142.032503 78.6972946,142.948976 75.4716865,143.799232 L75.4716973,97.6040143 C75.4716973,91.6080995 70.6303127,86.7924527 64.6581608,86.7924527 L56.0965559,86.7924527 C50.1333524,86.7924527 45.2830189,91.6329538 45.2830189,97.6040143 L45.2830189,147.679005 C45.2830189,148.553865 45.3860897,149.403597 45.5807051,150.216911 C33.8045078,152.200178 23.5550081,153.309381 15.7738465,153.929738 C5.78988486,138.36933 0,119.860815 0,100 C0,44.7715251 44.7715251,0 100,0 C144.015786,0 181.389619,28.4375857 194.750895,67.9421549 C183.177651,84.9266224 168.673897,98.5867141 152.830189,109.573111 Z M36.5270465,177.277173 C114.129165,173.059176 168.363265,118.470774 197.177135,76.3095249 C199.022124,83.9041114 200,91.8378581 200,100 C200,155.228476 155.228476,200 100,200 C75.9010189,200 53.7930586,191.475416 36.5270465,177.277173 Z" id="es" fill-rule="nonzero"></path>
                <path d="M2,245.46875 L2,243.007812 L5.18359375,242.460938 L5.18359375,220.058594 L2,219.511719 L2,217.03125 L23.8359375,217.03125 L23.8359375,223.867188 L20.5351562,223.867188 L20.2226562,220.058594 L9.03125,220.058594 L9.03125,229.257812 L19.9101562,229.257812 L19.9101562,232.285156 L9.03125,232.285156 L9.03125,242.460938 L20.4570312,242.460938 L20.7695312,238.652344 L24.0507812,238.652344 L24.0507812,245.46875 L2,245.46875 Z M34.578125,219.238281 L34.578125,224.335938 L38.5820312,224.335938 L38.5820312,227.1875 L34.578125,227.1875 L34.578125,240.019531 C34.578125,241.00912 34.7832011,241.705727 35.1933594,242.109375 C35.6035177,242.513023 36.147132,242.714844 36.8242188,242.714844 C37.1627621,242.714844 37.5436177,242.685547 37.9667969,242.626953 C38.3899761,242.568359 38.7447902,242.506511 39.03125,242.441406 L39.5585938,245.078125 C39.1940086,245.312501 38.6601598,245.504557 37.9570312,245.654297 C37.2539027,245.804037 36.5507848,245.878906 35.8476562,245.878906 C34.2851484,245.878906 33.0416713,245.406906 32.1171875,244.462891 C31.1927037,243.518875 30.7304688,242.037771 30.7304688,240.019531 L30.7304688,227.1875 L27.390625,227.1875 L27.390625,224.335938 L30.7304688,224.335938 L30.7304688,219.238281 L34.578125,219.238281 Z M41.9804688,243.007812 L45.1640625,242.460938 L45.1640625,218.027344 L41.9804688,217.480469 L41.9804688,215 L49.0117188,215 L49.0117188,227.148438 C49.7408891,226.132807 50.6328072,225.345055 51.6875,224.785156 C52.7421928,224.225258 53.9140561,223.945312 55.203125,223.945312 C57.4687613,223.945312 59.2265563,224.622389 60.4765625,225.976562 C61.7265687,227.330736 62.3515625,229.414048 62.3515625,232.226562 L62.3515625,242.460938 L65.5351562,243.007812 L65.5351562,245.46875 L55.3203125,245.46875 L55.3203125,243.007812 L58.5039062,242.460938 L58.5039062,232.1875 C58.5039062,230.4427 58.129561,229.15365 57.3808594,228.320312 C56.6321577,227.486975 55.5156324,227.070312 54.03125,227.070312 C52.9765572,227.070312 52.0162804,227.320961 51.1503906,227.822266 C50.2845009,228.32357 49.5716174,229.003902 49.0117188,229.863281 L49.0117188,242.460938 L52.1953125,243.007812 L52.1953125,245.46875 L41.9804688,245.46875 L41.9804688,243.007812 Z M77.9765625,245.878906 C75.0338395,245.878906 72.6933681,244.899098 70.9550781,242.939453 C69.2167882,240.979808 68.3476562,238.437516 68.3476562,235.3125 L68.3476562,234.453125 C68.3476562,231.445297 69.2428296,228.942067 71.0332031,226.943359 C72.8235767,224.944651 74.9426961,223.945312 77.390625,223.945312 C80.2291809,223.945312 82.3808521,224.804679 83.8457031,226.523438 C85.3105542,228.242196 86.0429688,230.53384 86.0429688,233.398438 L86.0429688,235.800781 L72.3320312,235.800781 L72.2734375,235.898438 C72.3125002,237.929698 72.826818,239.599603 73.8164062,240.908203 C74.8059945,242.216803 76.1926994,242.871094 77.9765625,242.871094 C79.2786523,242.871094 80.421219,242.685549 81.4042969,242.314453 C82.3873747,241.943358 83.2369756,241.432295 83.953125,240.78125 L85.4570312,243.28125 C84.7018191,244.01042 83.7024802,244.625649 82.4589844,245.126953 C81.2154886,245.628258 79.7213629,245.878906 77.9765625,245.878906 Z M77.390625,226.972656 C76.1015561,226.972656 75.0013066,227.516271 74.0898438,228.603516 C73.1783809,229.690761 72.6184906,231.054679 72.4101562,232.695312 L72.4492188,232.792969 L82.1953125,232.792969 L82.1953125,232.285156 C82.1953125,230.774732 81.7916707,229.511724 80.984375,228.496094 C80.1770793,227.480464 78.9791746,226.972656 77.390625,226.972656 Z M89.8320312,226.816406 L89.8320312,224.335938 L96.453125,224.335938 L96.8242188,227.402344 C97.4231801,226.321609 98.162105,225.475263 99.0410156,224.863281 C99.9199263,224.251299 100.925776,223.945312 102.058594,223.945312 C102.358074,223.945312 102.667316,223.968099 102.986328,224.013672 C103.30534,224.059245 103.549478,224.108073 103.71875,224.160156 L103.210938,227.734375 L101.023438,227.617188 C100.007807,227.617188 99.1549514,227.854815 98.4648438,228.330078 C97.7747361,228.805341 97.2408873,229.472652 96.8632812,230.332031 L96.8632812,242.460938 L100.046875,243.007812 L100.046875,245.46875 L89.8320312,245.46875 L89.8320312,243.007812 L93.015625,242.460938 L93.015625,227.363281 L89.8320312,226.816406 Z M126.609375,225.429688 L123.699219,225.429688 L122.976562,221.367188 C122.390622,220.872393 121.60938,220.462241 120.632812,220.136719 C119.656245,219.811196 118.523444,219.648438 117.234375,219.648438 C115.190094,219.648438 113.621099,220.081376 112.527344,220.947266 C111.433588,221.813155 110.886719,222.942701 110.886719,224.335938 C110.886719,225.572923 111.443354,226.604814 112.556641,227.431641 C113.669927,228.258468 115.47004,228.984372 117.957031,229.609375 C120.951838,230.351566 123.227206,231.445305 124.783203,232.890625 C126.3392,234.335945 127.117188,236.126291 127.117188,238.261719 C127.117188,240.553397 126.182952,242.395826 124.314453,243.789062 C122.445954,245.182299 120.001317,245.878906 116.980469,245.878906 C114.792958,245.878906 112.849618,245.520837 111.150391,244.804688 C109.451163,244.088538 108.067714,243.151047 107,241.992188 L107,236.699219 L109.890625,236.699219 L110.632812,240.78125 C111.375004,241.393232 112.260412,241.894529 113.289062,242.285156 C114.317713,242.675783 115.54817,242.871094 116.980469,242.871094 C118.920583,242.871094 120.45377,242.460942 121.580078,241.640625 C122.706386,240.820308 123.269531,239.707038 123.269531,238.300781 C123.269531,236.998691 122.781255,235.908208 121.804688,235.029297 C120.82812,234.150386 119.102877,233.411461 116.628906,232.8125 C113.621079,232.096351 111.270842,231.041674 109.578125,229.648438 C107.885408,228.255201 107.039062,226.503917 107.039062,224.394531 C107.039062,222.167958 107.983063,220.315763 109.871094,218.837891 C111.759124,217.360019 114.213527,216.621094 117.234375,216.621094 C119.226572,216.621094 121.039705,216.962887 122.673828,217.646484 C124.307951,218.330082 125.619787,219.160151 126.609375,220.136719 L126.609375,225.429688 Z M140.222656,242.871094 C141.498704,242.871094 142.62174,242.477217 143.591797,241.689453 C144.561854,240.901689 145.046875,239.934902 145.046875,238.789062 L148.503906,238.789062 L148.542969,238.90625 C148.608073,240.729176 147.797534,242.346998 146.111328,243.759766 C144.425122,245.172533 142.462251,245.878906 140.222656,245.878906 C137.149724,245.878906 134.802742,244.876312 133.181641,242.871094 C131.560539,240.865875 130.75,238.346369 130.75,235.3125 L130.75,234.492188 C130.75,231.48436 131.563794,228.974619 133.191406,226.962891 C134.819019,224.951162 137.162745,223.945312 140.222656,223.945312 C141.915373,223.945312 143.43554,224.225258 144.783203,224.785156 C146.130866,225.345055 147.247391,226.113276 148.132812,227.089844 L148.308594,231.777344 L145.242188,231.777344 L144.402344,228.457031 C143.946612,228.014321 143.360681,227.656251 142.644531,227.382812 C141.928382,227.109374 141.121098,226.972656 140.222656,226.972656 C138.204417,226.972656 136.762374,227.69856 135.896484,229.150391 C135.030595,230.602221 134.597656,232.382802 134.597656,234.492188 L134.597656,235.3125 C134.597656,237.473969 135.027339,239.274081 135.886719,240.712891 C136.746098,242.1517 138.191396,242.871094 140.222656,242.871094 Z M166.082031,245.46875 C165.964843,244.89583 165.873698,244.381513 165.808594,243.925781 C165.743489,243.47005 165.697917,243.014325 165.671875,242.558594 C164.929684,243.509119 164.001959,244.300127 162.888672,244.931641 C161.775385,245.563154 160.587246,245.878906 159.324219,245.878906 C157.123687,245.878906 155.450527,245.341802 154.304688,244.267578 C153.158848,243.193354 152.585938,241.679697 152.585938,239.726562 C152.585938,237.721344 153.396476,236.175136 155.017578,235.087891 C156.63868,234.000646 158.861965,233.457031 161.6875,233.457031 L165.652344,233.457031 L165.652344,230.996094 C165.652344,229.759108 165.261723,228.7793 164.480469,228.056641 C163.699215,227.333981 162.611986,226.972656 161.21875,226.972656 C160.255204,226.972656 159.405603,227.096353 158.669922,227.34375 C157.934241,227.591147 157.338544,227.929685 156.882812,228.359375 L156.472656,230.585938 L153.503906,230.585938 L153.503906,226.484375 C154.467453,225.716142 155.632806,225.100914 157,224.638672 C158.367194,224.17643 159.851554,223.945312 161.453125,223.945312 C163.84897,223.945312 165.789055,224.557286 167.273438,225.78125 C168.75782,227.005214 169.5,228.756499 169.5,231.035156 L169.5,241.210938 C169.5,241.484376 169.503255,241.751301 169.509766,242.011719 C169.516276,242.272137 169.532552,242.532551 169.558594,242.792969 L171.121094,243.007812 L171.121094,245.46875 L166.082031,245.46875 Z M159.890625,242.65625 C161.166673,242.65625 162.332026,242.350263 163.386719,241.738281 C164.441412,241.126299 165.196612,240.390629 165.652344,239.53125 L165.652344,236.054688 L161.550781,236.054688 C159.975253,236.054688 158.72852,236.419267 157.810547,237.148438 C156.892574,237.877608 156.433594,238.763016 156.433594,239.804688 C156.433594,240.729171 156.720049,241.435544 157.292969,241.923828 C157.865888,242.412112 158.731765,242.65625 159.890625,242.65625 Z M173.757812,243.007812 L176.941406,242.460938 L176.941406,227.363281 L173.757812,226.816406 L173.757812,224.335938 L180.378906,224.335938 L180.652344,227.480469 C181.355472,226.360671 182.237625,225.49154 183.298828,224.873047 C184.360031,224.254554 185.567702,223.945312 186.921875,223.945312 C189.200532,223.945312 190.964837,224.612624 192.214844,225.947266 C193.46485,227.281908 194.089844,229.342434 194.089844,232.128906 L194.089844,242.460938 L197.273438,243.007812 L197.273438,245.46875 L187.058594,245.46875 L187.058594,243.007812 L190.242188,242.460938 L190.242188,232.207031 C190.242188,230.345043 189.874353,229.023441 189.138672,228.242188 C188.402991,227.460934 187.279955,227.070312 185.769531,227.070312 C184.662755,227.070312 183.682947,227.337237 182.830078,227.871094 C181.977209,228.404951 181.296878,229.13411 180.789062,230.058594 L180.789062,242.460938 L183.972656,243.007812 L183.972656,245.46875 L173.757812,245.46875 L173.757812,243.007812 Z" id="EtherScan"></path>
            </g>
        </g>
    </g>
</svg>