<?xml version="1.0" encoding="UTF-8"?>
<svg width="512px" height="256px" viewBox="0 0 512 256" version="1.1" xmlns="http://www.w3.org/2000/svg" xmlns:xlink="http://www.w3.org/1999/xlink">
    <!-- Generator: Sketch 47.1 (45422) - http://www.bohemiancoding.com/sketch -->
    <title>Artboard</title>
    <desc>Created with Sketch.</desc>
    <defs>
        <path d="M0.471808593,45.5163983 C0.471808593,47.1310522 0.618512992,48.7457062 0.765217391,50.2136558 C1.93975817,61.3704348 7.22473887,71.2059686 14.8578955,78.3990121 C13.9767636,76.7843581 13.0965372,75.1697041 12.2154052,73.4074402 C5.7567893,65.9209879 1.93975817,56.0854541 1.93975817,45.5163983 C1.93975817,44.4885619 1.93975817,43.3140211 2.08646257,42.2870903 C2.81998456,31.7180345 7.51814767,22.029205 14.5644868,14.982866 C22.3443478,7.20300489 33.0610136,2.35813738 44.9513146,2.35813738 C51.4099305,2.35813738 57.5760432,3.82608696 63.1544327,6.46857731 C65.0624955,6.76198611 66.8247595,7.20300489 68.5861178,7.64311809 C61.6864831,3.38597376 53.6132133,0.890187806 44.9522202,0.890187806 C20.4362851,0.890187806 0.471808593,20.8546643 0.471808593,45.5163983" id="path-1"></path>
        <linearGradient x1="55.2193622%" y1="54.3746545%" x2="25.6813476%" y2="29.6144786%" id="linearGradient-3">
            <stop stop-color="#FAFAFA" offset="0%"></stop>
            <stop stop-color="#F2F2F2" offset="11.11%"></stop>
            <stop stop-color="#DEDEDE" offset="27.48%"></stop>
            <stop stop-color="#BDBDBC" offset="47.11%"></stop>
            <stop stop-color="#909090" offset="69.1%"></stop>
            <stop stop-color="#818282" offset="75.82%"></stop>
            <stop stop-color="#818282" offset="100%"></stop>
        </linearGradient>
        <path d="M6.87971186,41.5508516 C6.87971186,21.1462619 23.468176,4.55779779 43.7260612,4.55779779 C64.1306509,4.55779779 80.5724106,21.1462619 80.5724106,41.5508516 C80.5724106,61.9554412 63.9839465,78.5439053 43.7260612,78.5439053 C23.320566,78.5439053 6.87971186,61.9554412 6.87971186,41.5508516 M0.860303576,48.3028763 C0.860303576,74.7259686 22.2927296,96.1583946 48.5691176,96.1583946 C74.9922099,96.1583946 96.2779316,74.7259686 96.2779316,48.3028763 C96.2779316,21.8797839 74.8455055,0.44735786 48.5691176,0.44735786 C22.2927296,0.44735786 0.860303576,21.8797839 0.860303576,48.3028763" id="path-4"></path>
        <linearGradient x1="32.5860186%" y1="32.0472536%" x2="67.4499954%" y2="67.9086525%" id="linearGradient-6">
            <stop stop-color="#F8F7F7" offset="0%"></stop>
            <stop stop-color="#BCBCBB" offset="23.6%"></stop>
            <stop stop-color="#B6B6B5" offset="32.24%"></stop>
            <stop stop-color="#A2A2A1" offset="44.74%"></stop>
            <stop stop-color="#828383" offset="59.58%"></stop>
            <stop stop-color="#575757" offset="76.22%"></stop>
            <stop stop-color="#1F2020" offset="94.14%"></stop>
            <stop stop-color="#0B0C0C" offset="100%"></stop>
        </linearGradient>
        <path d="M63.7122717,8.79049138 C66.5014664,11.5796861 68.850548,14.6622897 70.7586108,18.185912 C74.2813275,24.4978235 76.3370003,31.690867 76.3370003,39.3249293 C76.3370003,51.2152303 71.4930383,62.0786005 63.7122717,69.8584615 C55.9324106,77.6383226 45.2157448,82.4831901 33.3254438,82.4831901 C21.4351428,82.4831901 10.718477,77.6392282 2.9386159,69.8584615 C2.20418832,68.9773296 1.32396192,68.2438076 0.589534345,67.3626756 C1.32396192,69.124034 2.20418832,70.7386879 3.2320247,72.3533419 C11.1594958,79.6930898 21.7285516,84.0969385 33.3254438,84.0969385 C57.9871778,84.0969385 77.9516542,64.1324621 77.9516542,39.4707281 C77.9516542,34.3324518 77.0705223,29.3417854 75.4558683,24.7912323 C72.0798559,15.1024029 65.47363,7.02913301 56.9593414,1.5974479 C55.197983,1.15733471 53.4366246,0.716315925 51.5276563,0.422907126 C56.079115,2.3309699 60.1895549,5.26686905 63.7122717,8.79049138" id="path-7"></path>
        <linearGradient x1="50.0030614%" y1="-31.825987%" x2="50.0030538%" y2="127.660728%" id="linearGradient-9">
            <stop stop-color="#FFFFFF" offset="0%"></stop>
            <stop stop-color="#BDBDBC" offset="100%"></stop>
        </linearGradient>
        <path d="M0.860303576,46.2997273 C0.860303576,47.9143813 1.00700798,49.5290352 1.15371237,51.1436892 C1.44712117,48.3544945 1.88813995,45.7120041 2.62166195,43.0695138 C3.35518395,32.2061436 8.20005145,22.3715153 15.3930949,15.0308618 C23.320566,6.95668639 34.329735,2.11272447 46.5143504,2.11272447 C58.6980602,2.11272447 69.7081348,7.10339079 77.6356059,15.0308618 C80.4248006,17.8200566 82.9205866,21.0493645 84.8286493,24.5729869 C86.5900077,26.6277541 88.2046617,28.8301312 89.5259069,31.1792128 C83.3606998,13.2704091 66.3321225,0.498976074 46.367646,0.498976074 C21.2657988,0.352271675 0.860303576,20.9035657 0.860303576,46.2997273" id="path-10"></path>
        <linearGradient x1="52.8221048%" y1="70.9692485%" x2="45.836314%" y2="19.0769588%" id="linearGradient-12">
            <stop stop-color="#EFEFEF" offset="0%"></stop>
            <stop stop-color="#EBEBEB" offset="18.44%"></stop>
            <stop stop-color="#E0E0E0" offset="34.83%"></stop>
            <stop stop-color="#CFCECE" offset="50.45%"></stop>
            <stop stop-color="#B5B4B4" offset="65.58%"></stop>
            <stop stop-color="#949494" offset="80.37%"></stop>
            <stop stop-color="#6D6D6D" offset="94.72%"></stop>
            <stop stop-color="#5C5C5C" offset="100%"></stop>
        </linearGradient>
        <path d="M89.6481605,21.8489941 C89.6481605,34.0327039 84.6574942,45.0427785 76.7300232,53.1169539 C68.8025521,61.1911294 57.7933831,66.0350913 45.6087677,66.0350913 C33.4250579,66.0350913 22.4149833,61.044425 14.4875122,53.1169539 C6.56004116,45.0427785 1.56937484,34.0336095 1.56937484,21.8489941 C1.56937484,20.8211577 1.56937484,19.6466169 1.71607924,18.6196861 C0.981651659,21.2621765 0.541538462,23.9046668 0.248129663,26.6938616 C2.59721122,49.7409416 22.1206689,67.6506509 45.7554721,67.6506509 C71.0049293,67.6506509 91.4095189,47.0993568 91.4095189,21.8498997 C91.4095189,16.564919 90.5283869,11.4275482 88.913733,6.72938513 C87.5924878,4.38030358 85.9778338,2.178832 84.2164754,0.123159249 C87.5924878,6.58177515 89.6481605,13.9224286 89.6481605,21.8489941" id="path-13"></path>
        <linearGradient x1="50.0013573%" y1="-0.00255642389%" x2="50.001354%" y2="100.001378%" id="linearGradient-15">
            <stop stop-color="#FFFFFF" offset="0%"></stop>
            <stop stop-color="#D8D9D9" offset="100%"></stop>
        </linearGradient>
    </defs>
    <g id="Page-1" stroke="none" stroke-width="1" fill="none" fill-rule="evenodd">
        <g id="Artboard">
            <g id="dewa" transform="translate(36.000000, 76.000000)">
                <g id="Clipped" transform="translate(335.971186, 1.811165)">
                    <mask id="mask-2" fill="white">
                        <use xlink:href="#path-1"></use>
                    </mask>
                    <g id="SVGID_1_"></g>
                    <polygon id="Shape" fill="url(#linearGradient-3)" fill-rule="nonzero" mask="url(#mask-2)" points="40.5474659 112.015148 -37.695786 46.3966246 28.6571649 -32.7268536 106.899511 32.8916697"></polygon>
                </g>
                <g id="Clipped" transform="translate(343.215848, 7.244662)">
                    <mask id="mask-5" fill="white">
                        <use xlink:href="#path-4"></use>
                    </mask>
                    <g id="SVGID_4_"></g>
                    <polygon id="Shape" fill="url(#linearGradient-6)" fill-rule="nonzero" mask="url(#mask-5)" points="50.0379727 -47.2614561 144.134356 49.7717314 47.248778 144.014819 -46.9952148 46.9825367"></polygon>
                </g>
                <g id="Clipped" transform="translate(347.743761, 8.150244)">
                    <mask id="mask-8" fill="white">
                        <use xlink:href="#path-7"></use>
                    </mask>
                    <g id="SVGID_7_"></g>
                    <rect id="Rectangle-path" fill="url(#linearGradient-9)" fill-rule="nonzero" mask="url(#mask-8)" x="0.589534345" y="0.129498328" width="77.2154155" height="83.8207358"></rect>
                </g>
                <g id="Clipped" transform="translate(343.215848, 0.000000)">
                    <mask id="mask-11" fill="white">
                        <use xlink:href="#path-10"></use>
                    </mask>
                    <g id="SVGID_10_"></g>
                    <polygon id="Shape" fill="url(#linearGradient-12)" fill-rule="nonzero" mask="url(#mask-11)" points="3.50279393 66.2642038 -7.80068948 1.96692565 87.0301209 -14.7673373 98.3336043 49.5290352"></polygon>
                </g>
                <g id="Clipped" transform="translate(344.121430, 24.450733)">
                    <mask id="mask-14" fill="white">
                        <use xlink:href="#path-13"></use>
                    </mask>
                    <g id="SVGID_13_"></g>
                    <rect id="Rectangle-path" fill="url(#linearGradient-15)" fill-rule="nonzero" mask="url(#mask-14)" x="0.101425264" y="0.123159249" width="91.1604837" height="67.5265861"></rect>
                </g>
                <g id="Group" transform="translate(0.000000, 41.656805)" fill-rule="nonzero" fill="#010202">
                    <path d="M6.29651659,27.2498894 C5.56208901,27.2498894 4.82856702,27.836707 4.82856702,28.5711346 C4.82856702,29.3055621 5.5629946,30.0390841 6.29651659,30.0390841 C7.03003859,30.0390841 7.76446617,29.4522665 7.76446617,28.5711346 C7.76446617,27.9834114 7.03094417,27.2498894 6.29651659,27.2498894 L6.29651659,27.2498894 Z M9.96684332,27.2498894 C9.23241574,27.2498894 8.49889375,27.836707 8.49889375,28.5711346 C8.49889375,29.3055621 9.08571135,30.0390841 9.96684332,30.0390841 C10.7012709,30.0390841 11.4347929,29.4522665 11.4347929,28.5711346 C11.4347929,27.9834114 10.8470697,27.2498894 9.96684332,27.2498894 L9.96684332,27.2498894 Z M37.1243633,14.9185696 C37.1243633,16.8266324 36.2432313,17.7077643 34.3351685,17.7077643 L33.0139233,17.7077643 L33.0139233,17.7077643 L14.6641008,17.7077643 L14.6641008,17.7077643 L13.9296733,17.7077643 C12.1683149,17.7077643 11.4338873,17.1209467 10.7003653,15.5053872 L9.52582454,18.0011731 C10.1126421,19.1757139 11.1404785,19.9092359 12.9018369,20.0559403 C12.7551325,21.3771855 12.1674093,22.1107075 11.1404785,22.5517263 C10.5536609,22.8451351 9.67252894,22.8451351 8.35128377,22.8451351 C5.26868022,22.8451351 3.65402624,21.0837767 3.65402624,18.0011731 C3.65402624,16.0931104 4.24084384,14.0374376 5.26868022,11.6892616 L2.18607667,13.45062 C1.45164909,15.2119784 1.15824029,16.8266324 1.15824029,18.4412863 C1.15824029,20.4960535 1.74505789,21.9640031 2.77289426,23.1385439 C3.94743504,24.459789 5.85549781,25.193311 8.35128377,25.193311 C10.4060509,25.193311 12.0216105,24.7531978 13.1952457,23.8720659 C14.5164909,22.9909339 15.2500129,21.6696887 15.1033085,19.9083303 L34.6276717,19.9083303 C36.2423257,19.9083303 37.4168665,19.4682171 38.4447029,18.5870852 C39.3258348,17.7059532 39.9126524,16.532318 39.9126524,15.2110728 L39.9126524,7.87132493 L37.1234577,8.45814253 L37.1234577,14.9185696 L37.1243633,14.9185696 Z M36.6833445,22.2583175 C35.9489169,22.2583175 35.2153949,22.8451351 35.2153949,23.5795626 C35.2153949,24.3139902 35.9498225,25.0475122 36.6833445,25.0475122 C37.4168665,25.0475122 38.1512941,24.3139902 38.1512941,23.5795626 C38.0045897,22.992745 37.4177721,22.2583175 36.6833445,22.2583175 L36.6833445,22.2583175 Z M51.5104502,9.04677129 C50.4826138,8.16563931 49.1613687,7.72552611 47.5467147,7.72552611 C46.3721739,7.72552611 45.0509287,8.31234371 43.876388,9.34018009 L43.876388,12.2760792 C44.7575199,10.6614253 46.0787651,9.92699768 47.5467147,9.92699768 C49.4547775,9.92699768 50.4826138,10.8081297 50.4826138,12.569488 L50.4826138,17.7077643 L43.7296836,17.7077643 L42.1150296,19.9101415 L53.1251042,19.9101415 L53.1251042,12.4236892 C52.9783998,10.9548341 52.537381,9.92790327 51.5104502,9.04677129 L51.5104502,9.04677129 Z M65.4555184,7.57882171 C63.4007512,7.57882171 61.9328016,8.16563931 61.0516697,9.48688449 C60.3172421,10.5147209 59.8771289,11.9826704 59.8771289,13.7440288 C59.8771289,15.5053872 60.3172421,16.8266324 61.0516697,18.0011731 C62.079506,19.3224183 63.5474556,19.9092359 65.4555184,19.9092359 C67.5102856,19.9092359 68.9782351,19.3224183 69.8593671,18.0011731 C70.5937947,16.9733368 71.0339079,15.5053872 71.0339079,13.7440288 C71.0339079,11.9826704 70.5937947,10.5147209 69.8593671,9.48688449 C68.9791407,8.31324929 67.5111911,7.57882171 65.4555184,7.57882171 L65.4555184,7.57882171 Z M65.4555184,17.7077643 C63.4007512,17.7077643 62.5196192,16.3865192 62.5196192,13.7440288 C62.5196192,11.1015385 63.5474556,9.78029329 65.4555184,9.78029329 C67.5102856,9.78029329 68.5381219,11.1015385 68.5381219,13.7440288 C68.5390275,16.3865192 67.5111911,17.7077643 65.4555184,17.7077643 L65.4555184,17.7077643 Z M96.7234783,22.2583175 C95.9890507,22.2583175 95.2555287,22.8451351 95.2555287,23.5795626 C95.2555287,24.3139902 95.8423463,25.0475122 96.7234783,25.0475122 C97.4579058,25.0475122 98.1914278,24.3139902 98.1914278,23.5795626 C98.1914278,22.992745 97.4579058,22.2583175 96.7234783,22.2583175 L96.7234783,22.2583175 Z M100.393805,22.2583175 C99.6593774,22.2583175 98.9258554,22.8451351 98.9258554,23.5795626 C98.9258554,24.3139902 99.512673,25.0475122 100.393805,25.0475122 C101.128233,25.0475122 101.861755,24.3139902 101.861755,23.5795626 C101.861755,22.992745 101.127327,22.2583175 100.393805,22.2583175 L100.393805,22.2583175 Z M112.577515,8.31324929 C110.669452,8.31324929 109.201502,8.90006689 108.32037,10.0746077 C107.585943,11.102444 107.14583,12.4236892 107.14583,14.0383432 L107.14583,14.9194752 C107.14583,16.6808335 106.264698,17.5619655 104.503339,17.5619655 L102.595277,17.5619655 C100.833918,17.5619655 99.8060818,16.6808335 99.8060818,14.9194752 L99.8060818,7.5797273 L97.1635915,8.31415488 L97.1635915,14.7727708 C97.1635915,16.6808335 96.2824595,17.5619655 94.3743967,17.5619655 L93.1998559,17.5619655 L93.1998559,17.5619655 L77.3458194,17.5619655 C76.4646874,17.5619655 76.0245742,17.1218523 76.0245742,16.2407203 L76.0245742,2.44145099 L73.3820839,3.32258297 L73.3820839,16.3874247 C73.3820839,18.4421919 74.703329,19.9101415 77.0524106,19.9101415 L94.5211011,19.9101415 C96.2824595,19.9101415 97.4570003,19.4700283 98.4848366,18.4421919 C99.3659686,19.3233239 100.687214,19.9101415 102.301868,19.9101415 L104.504245,19.9101415 C106.265603,19.9101415 107.733553,19.4700283 108.614685,18.4421919 C109.642521,19.3233239 110.817062,19.9101415 112.431716,19.9101415 C114.339779,19.9101415 115.661024,19.3233239 116.68886,18.0020787 C117.423288,16.9742423 117.863401,15.6529972 117.863401,14.0383432 C117.863401,12.4236892 117.423288,11.102444 116.68886,10.0746077 C115.806823,8.90006689 114.338873,8.31324929 112.577515,8.31324929 L112.577515,8.31324929 Z M112.577515,17.7077643 C110.816156,17.7077643 109.78832,16.5332236 109.78832,14.1850476 C109.78832,11.8368716 110.669452,10.5147209 112.577515,10.5147209 C114.338873,10.5147209 115.220005,11.6892616 115.220005,14.1850476 C115.220005,16.5332236 114.338873,17.7077643 112.577515,17.7077643 L112.577515,17.7077643 Z M125.642357,8.16563931 C123.734294,8.16563931 122.266344,8.75245691 121.385212,10.0737021 C120.650785,11.1015385 120.210671,12.569488 120.210671,14.184142 C120.210671,15.9455004 120.650785,17.2667456 121.385212,18.2945819 C122.266344,19.6158271 123.734294,20.2026447 125.642357,20.2026447 C126.670193,20.2026447 127.403715,20.0559403 128.284847,19.6158271 C127.991438,21.6705943 126.963602,22.6984307 124.908835,22.8451351 C123.587589,22.9918395 122.11964,22.5517263 120.504986,21.9640031 L121.679527,24.459789 C122.413954,24.8999022 123.587589,25.193311 124.908835,25.193311 C126.816897,25.193311 128.284847,24.6064934 129.312683,23.2852483 C130.34052,22.2574119 130.780633,20.7894623 130.780633,18.8813995 C130.780633,18.5879907 130.780633,18.0002676 130.780633,17.1200412 C130.780633,16.3865192 130.780633,15.6520916 130.780633,15.2119784 C130.780633,13.1572112 130.487224,11.5416517 129.899501,10.3680165 C129.165979,8.90006689 127.698029,8.16563931 125.642357,8.16563931 L125.642357,8.16563931 Z M125.642357,18.0011731 C123.734294,18.0011731 122.853162,16.679928 122.853162,14.184142 C122.853162,11.6883561 123.734294,10.3671109 125.642357,10.3671109 C127.550419,10.3671109 128.431551,11.6883561 128.431551,14.184142 C128.284847,16.8275379 127.404621,18.0011731 125.642357,18.0011731 L125.642357,18.0011731 Z M143.845475,16.5332236 C143.845475,15.065274 144.726607,13.8907332 146.194556,13.8907332 C147.075688,13.8907332 147.662506,14.3308464 148.249323,15.065274 L150.010682,13.3039156 C148.982845,12.1293748 147.6616,11.5425572 146.340355,11.5425572 C144.725701,11.5425572 143.55116,12.1293748 142.670028,13.1572112 C141.788896,14.1850476 141.348783,15.3595884 141.348783,16.8275379 L141.348783,17.5610599 L139.44072,17.5610599 L137.385953,19.9101415 L150.304091,19.9101415 L150.304091,17.5610599 L143.697865,17.5610599 L143.697865,16.5332236 L143.845475,16.5332236 L143.845475,16.5332236 Z M177.314906,14.9185696 C177.314906,16.8266324 176.433774,17.7077643 174.525711,17.7077643 L173.204466,17.7077643 L173.204466,17.7077643 L157.35043,17.7077643 C156.469298,17.7077643 156.029184,17.2676511 156.029184,16.3865192 L156.029184,2.58724981 L153.386694,3.46838179 L153.386694,16.5332236 C153.386694,18.5879907 154.707939,20.0559403 157.057021,20.0559403 L174.672416,20.0559403 C176.28707,20.0559403 177.46161,19.6158271 178.489447,18.7346951 C179.370579,17.8535632 179.957396,16.679928 179.957396,15.3586828 L179.957396,8.01893491 L177.314906,8.75336249 L177.314906,14.9185696 L177.314906,14.9185696 Z M176.728089,22.2583175 C175.993661,22.2583175 175.406843,22.8451351 175.406843,23.5795626 C175.406843,24.3139902 175.993661,25.0475122 176.728089,25.0475122 C177.462516,25.0475122 178.196038,24.3139902 178.196038,23.5795626 C178.196038,22.992745 177.46161,22.2583175 176.728089,22.2583175 L176.728089,22.2583175 Z M243.961266,10.3680165 C242.640021,9.19347569 241.025367,8.60665809 239.117304,8.60665809 C238.677191,8.60665809 238.382876,8.60665809 237.942763,8.60665809 L243.961266,2.44145099 L240.585253,2.44145099 L232.070965,11.2491484 L233.832323,12.8638024 C235.153568,11.3958528 236.621518,10.8090352 238.676285,10.8090352 C240.144235,10.8090352 241.46548,11.2491484 242.346612,12.1302804 C243.081039,12.717098 243.521153,13.59823 243.667857,14.7727708 C243.814561,15.3595884 243.814561,16.3874247 243.814561,17.7086699 L231.483242,17.7086699 L231.483242,17.7086699 L219.739645,17.7086699 L219.739645,16.5341291 C219.739645,14.331752 219.592941,12.8638024 219.446236,11.8368716 C219.152827,10.5156264 218.565104,9.63449447 217.831582,8.90097247 C216.510337,7.7264317 214.895683,7.1396141 212.840916,7.1396141 C210.786149,7.1396141 209.170589,7.87404168 207.85025,9.48869565 C206.529004,10.9566452 205.942187,12.864708 205.942187,15.0670852 C205.942187,16.0949215 206.088891,16.9751479 206.529004,17.5628711 L190.674968,17.5628711 L190.674968,7.58063288 L188.032477,8.31506046 L188.032477,19.0308207 C188.032477,21.3799022 186.711232,22.7011474 184.509761,22.7011474 C182.895107,22.7011474 181.573862,22.4077386 180.252616,21.673311 L181.427157,24.169097 C182.161585,24.6092102 183.188516,24.9035246 184.363056,24.9035246 C187.885773,24.9035246 190.234855,22.8487574 190.528263,19.7652483 L246.311253,19.7652483 C246.311253,16.6826447 246.311253,14.9212863 246.164548,14.626972 C246.016033,12.8638024 245.282511,11.3958528 243.961266,10.3680165 L243.961266,10.3680165 Z M210.19752,17.7077643 C208.876275,17.7077643 208.142753,16.5332236 208.142753,15.065274 C208.142753,14.3308464 208.289457,13.5973244 208.72957,13.0105068 C209.169684,12.4236892 209.610702,12.1293748 210.19752,12.1293748 C210.784338,12.1293748 211.372061,12.4227836 211.66547,13.0105068 C212.105583,13.5973244 212.252287,14.331752 212.252287,15.065274 C212.253193,16.5332236 211.66547,17.7077643 210.19752,17.7077643 L210.19752,17.7077643 Z M217.097155,17.7077643 L213.867847,17.7077643 C214.454664,17.2676511 214.748979,16.3865192 214.748979,15.065274 C214.748979,13.7440288 214.45557,12.569488 213.721142,11.6892616 C212.986715,10.5147209 211.813079,9.92790327 210.491834,9.92790327 C211.078652,9.63449447 211.813079,9.48779007 212.840916,9.48779007 C214.895683,9.48779007 216.216928,10.2222176 216.804651,11.8368716 C217.09806,12.5712992 217.244765,14.1859532 217.244765,16.5341291 L217.244765,17.7086699 L217.097155,17.7086699 L217.097155,17.7077643 Z M257.612925,5.37735014 C258.494057,5.37735014 259.080875,4.79053254 259.080875,3.90940057 C259.080875,3.17497299 258.494057,2.58815539 257.612925,2.58815539 C256.878498,2.58815539 256.144976,3.17497299 256.144976,3.90940057 C256.144976,4.64382815 256.732699,5.37735014 257.612925,5.37735014 L257.612925,5.37735014 Z M261.283252,5.37735014 C262.017679,5.37735014 262.751201,4.79053254 262.751201,3.90940057 C262.751201,3.17497299 262.016774,2.58815539 261.283252,2.58815539 C260.54973,2.58815539 259.815302,3.17497299 259.815302,3.90940057 C259.815302,4.64382815 260.548824,5.37735014 261.283252,5.37735014 L261.283252,5.37735014 Z M280.366596,4.34951376 L276.256156,4.34951376 L276.256156,3.61508618 C276.256156,2.44054541 276.842974,1.85372781 277.87081,1.85372781 C278.457628,1.85372781 278.898647,2.14713661 279.33876,2.58815539 L280.513301,1.41361461 C279.779779,0.679187034 278.898647,0.239073836 278.017515,0.239073836 C275.815138,0.239073836 274.494798,1.85372781 274.494798,3.90940057 L274.494798,4.49621816 L273.613666,4.49621816 L272.292421,6.11087214 L280.366596,6.11087214 L280.366596,4.34951376 L280.366596,4.34951376 Z M291.376671,22.2583175 C290.642243,22.2583175 289.908721,22.8451351 289.908721,23.5795626 C289.908721,24.3139902 290.495539,25.0475122 291.376671,25.0475122 C292.110193,25.0475122 292.844621,24.3139902 292.844621,23.5795626 C292.844621,22.992745 292.256897,22.2583175 291.376671,22.2583175 L291.376671,22.2583175 Z M295.046092,22.2583175 C294.311665,22.2583175 293.724847,22.8451351 293.724847,23.5795626 C293.724847,24.3139902 294.311665,25.0475122 295.046092,25.0475122 C295.78052,25.0475122 296.514042,24.3139902 296.514042,23.5795626 C296.514042,22.992745 295.927224,22.2583175 295.046092,22.2583175 L295.046092,22.2583175 Z M316.038405,9.63449447 C315.010569,7.7264317 312.955801,6.84529972 310.166607,6.84529972 L306.790594,6.84529972 L303.854695,9.04767687 L309.873198,9.04767687 C311.781261,9.04767687 313.102506,9.63449447 313.836933,10.8090352 C314.277047,11.6901672 314.571361,13.1581168 314.571361,15.3595884 L314.571361,17.5619655 L312.075575,17.5619655 C312.515688,16.9751479 312.810003,15.9473116 312.810003,14.6260664 C312.810003,13.4515256 312.516594,12.5712992 312.075575,11.8368716 C311.488757,10.9557396 310.460921,10.368922 309.139676,10.368922 C307.818431,10.368922 306.790594,10.8090352 306.203777,11.8368716 C305.616959,12.5712992 305.469349,13.4515256 305.469349,14.6260664 C305.469349,16.3874247 305.762758,17.2685567 306.350481,17.5619655 L298.42301,17.5619655 L298.42301,17.5619655 L297.541878,17.5619655 C295.633815,17.5619655 294.752683,16.6808335 294.752683,14.9194752 L294.752683,7.5797273 L291.963489,8.46085927 L291.963489,14.9203808 C291.963489,16.8284435 291.082357,17.7095755 289.174294,17.7095755 L287.999753,17.7095755 L287.999753,17.7095755 L282.861477,17.7095755 L282.861477,17.7095755 L281.980345,17.7095755 C280.218986,17.7095755 279.19115,16.8284435 279.19115,15.0670852 L279.19115,7.72733728 L276.54866,8.46176486 L276.54866,14.9212863 C276.54866,16.8293491 275.667528,17.7104811 273.759465,17.7104811 L272.878333,17.7104811 L272.878333,17.7104811 L267.740057,17.7104811 L267.740057,17.7104811 L266.71222,17.7104811 C264.950862,17.7104811 264.06973,16.8293491 264.06973,14.9212863 L264.06973,7.72824286 L258.49134,7.72824286 C254.968624,7.72824286 253.20636,9.78301003 253.20636,13.7467456 C253.20636,17.8571855 254.967718,19.9119527 258.49134,19.9119527 C260.546108,19.9119527 261.867353,19.3251351 262.60178,18.0038899 C263.188598,19.3251351 264.509843,19.9119527 266.71222,19.9119527 L274.198672,19.9119527 C275.813326,19.9119527 277.134572,19.4718395 278.162408,18.4440031 C279.04354,19.3251351 280.364785,19.9119527 281.979439,19.9119527 L289.465891,19.9119527 C291.080545,19.9119527 292.401791,19.4718395 293.429627,18.4440031 C294.310759,19.3251351 295.632004,19.9119527 297.246658,19.9119527 L317.211135,19.9119527 L317.211135,15.5081039 C317.066241,12.8638024 316.771927,10.8081297 316.038405,9.63449447 L316.038405,9.63449447 Z M261.429956,13.7440288 C261.429956,15.065274 261.283252,16.0931104 260.843139,16.679928 C260.403025,17.41345 259.668598,17.7077643 258.640762,17.7077643 C257.612925,17.7077643 256.732699,17.4143555 256.438384,16.679928 C256.144976,16.0931104 255.851567,15.065274 255.851567,13.7440288 C255.851567,12.4227836 255.998271,11.3949473 256.438384,10.8081297 C256.878498,10.0737021 257.612925,9.78029329 258.640762,9.78029329 L261.429956,9.78029329 L261.429956,13.7440288 L261.429956,13.7440288 Z M308.992066,17.7077643 C307.964229,17.7077643 307.377412,16.679928 307.377412,14.7718652 C307.377412,13.1572112 307.964229,12.4227836 308.992066,12.4227836 C310.019902,12.4227836 310.60672,13.1572112 310.60672,14.7718652 C310.60672,16.679928 310.019902,17.7077643 308.992066,17.7077643 L308.992066,17.7077643 Z" id="Shape"></path>
                    <path d="M288.880885,41.7826807 L288.880885,41.7826807 C287.999753,42.3694983 287.55964,43.2506303 287.55964,44.2784667 L287.55964,50.7379882 L289.908721,50.7379882 L289.908721,44.2784667 C289.908721,43.2506303 291.083262,42.6638127 292.844621,42.6638127 L293.284734,42.6638127 L293.284734,40.7557499 L292.844621,40.7557499 C291.082357,40.7548444 289.762017,41.1949576 288.880885,41.7826807" id="Shape"></path>
                    <path d="M296.220633,39.2868948 C296.95506,39.2868948 297.395174,38.8467816 297.395174,37.9656496 C297.395174,37.2321276 296.95506,36.7911088 296.220633,36.7911088 C295.486205,36.7911088 295.046092,37.231222 295.046092,37.9656496 C294.899388,38.8467816 295.339501,39.2868948 296.220633,39.2868948 L296.220633,39.2868948 Z M295.046092,50.7370826 L297.395174,50.7370826 L297.395174,40.7548444 L295.046092,40.7548444 L295.046092,50.7370826 Z" id="Shape"></path>
                    <path d="M314.71716,40.7548444 L314.71716,46.1865295 C314.71716,47.2143658 313.542619,47.8011834 311.781261,47.8011834 C310.313311,47.8011834 308.551953,47.3610702 308.551953,46.1865295 L308.551953,45.8931207 L308.551953,40.7548444 L306.202871,40.7548444 L306.202871,45.8931207 L306.202871,46.1865295 C306.202871,47.8011834 307.670821,49.5625418 311.634556,49.5625418 C312.809097,49.5625418 313.689323,49.4158374 314.570455,48.9757242 L314.570455,51.4715102 C314.570455,52.3526421 313.395915,53.0861641 311.634556,53.0861641 L308.992066,53.0861641 L308.992066,54.8475225 L311.634556,54.8475225 C313.24921,54.8475225 314.570455,54.5541137 315.598292,53.8196861 C316.479424,53.0852586 316.919537,52.3517366 316.919537,51.3239002 L316.919537,40.7548444 L314.71716,40.7548444 Z" id="Shape"></path>
                    <path d="M301.652318,47.654479 L301.652318,42.6638127 L304.588217,42.6638127 L304.588217,40.7557499 L301.652318,40.7557499 L301.652318,37.9665552 L299.303236,37.9665552 L299.303236,47.3619758 C299.303236,48.683221 299.74335,49.7110574 300.624482,50.1511706 C301.358909,50.5912838 302.532544,50.7379882 304.294808,50.7379882 L305.17594,50.7379882 L305.17594,48.9766298 L304.735827,48.9766298 C301.799022,48.9757242 301.652318,48.3889066 301.652318,47.654479" id="Shape"></path>
                    <path d="M284.477036,41.7826807 L284.477036,41.7826807 C283.4492,41.0482532 282.127955,40.7548444 280.513301,40.7548444 C278.605238,40.7548444 277.430697,41.0482532 276.402861,41.7826807 C275.521729,42.3694983 275.081616,43.2506303 275.081616,44.2784667 L275.081616,47.3610702 C275.081616,48.6823154 275.521729,49.7101518 276.402861,50.150265 C277.137288,50.5903782 278.310924,50.7370826 280.073188,50.7370826 L280.807615,50.7370826 C282.568974,50.7370826 283.743514,50.5903782 284.477942,50.150265 C285.359074,49.7101518 285.799187,48.8290198 285.799187,47.3610702 L285.799187,44.2784667 C285.798281,43.2506303 285.357263,42.5162027 284.477036,41.7826807 L284.477036,41.7826807 Z M283.4492,47.654479 C283.4492,48.3889066 283.302495,48.8290198 280.513301,48.8290198 C277.577402,48.8290198 277.430697,48.3889066 277.430697,47.654479 L277.430697,44.2784667 C277.430697,43.2506303 278.605238,42.6638127 280.366596,42.6638127 C282.274659,42.6638127 283.4492,43.3982403 283.4492,44.2784667 L283.4492,47.654479 Z" id="Shape"></path>
                    <path d="M239.99753,38.7000772 L239.99753,38.7000772 C238.969694,37.9656496 237.795153,37.6722408 236.033795,37.6722408 C232.070059,37.6722408 230.60211,39.4335992 230.60211,41.0482532 L230.60211,50.7370826 L232.951191,50.7370826 L232.951191,47.3610702 L238.969694,47.3610702 L238.969694,50.7370826 L241.318775,50.7370826 L241.318775,41.1949576 C241.318775,40.1680268 240.878662,39.2868948 239.99753,38.7000772 L239.99753,38.7000772 Z M238.969694,45.4521019 L232.951191,45.4521019 L232.951191,41.0482532 C232.951191,39.5803036 235.300273,39.4335992 236.033795,39.4335992 C237.795153,39.4335992 238.969694,40.1680268 238.969694,41.0482532 L238.969694,45.4521019 Z" id="Shape"></path>
                    <path d="M267.888572,41.7826807 C266.714031,41.7826807 265.833805,41.9293851 264.952673,42.3694983 L264.952673,37.8189452 L262.603591,37.8189452 L262.603591,50.7370826 L264.952673,50.7370826 L264.952673,45.3053975 C264.952673,44.2775611 266.127214,43.6907435 267.888572,43.6907435 C269.356522,43.6907435 270.971176,44.1308567 270.971176,45.3053975 L270.971176,45.5988063 L270.971176,50.883787 L273.320257,50.883787 L273.320257,45.7455107 L273.320257,45.4521019 C273.320257,43.5440391 271.852308,41.7826807 267.888572,41.7826807" id="Shape"></path>
                    <path d="M251.447718,47.3610702 C251.447718,48.8290198 249.098636,48.9757242 248.365114,48.9757242 C246.603756,48.9757242 245.429215,48.2412966 245.429215,47.3610702 L245.429215,40.7548444 L243.080134,40.7548444 L243.080134,47.2143658 C243.080134,48.0954978 243.520247,48.9757242 244.401379,49.7101518 L244.401379,49.7101518 C245.282511,50.4436738 246.603756,50.7379882 248.365114,50.7379882 C252.475554,50.7379882 253.7968,48.9766298 253.7968,47.3619758 L253.7968,40.7557499 L251.447718,40.7557499 L251.447718,47.3610702 L251.447718,47.3610702 Z" id="Shape"></path>
                    <path d="M257.906334,47.654479 L257.906334,42.6638127 L260.842233,42.6638127 L260.842233,40.7557499 L257.906334,40.7557499 L257.906334,37.9665552 L255.557252,37.9665552 L255.557252,47.3619758 C255.557252,48.683221 255.997366,49.7110574 256.878498,50.1511706 C257.612925,50.5912838 258.78656,50.7379882 260.548824,50.7379882 L261.429956,50.7379882 L261.429956,48.9766298 L260.989843,48.9766298 C258.053038,48.9757242 257.906334,48.3889066 257.906334,47.654479" id="Shape"></path>
                    <path d="M21.7104399,47.3610702 C21.7104399,48.8290198 19.3613584,48.9757242 18.6278364,48.9757242 C16.866478,48.9757242 15.6919372,48.2412966 15.6919372,47.3610702 L15.6919372,40.7548444 L13.3428557,40.7548444 L13.3428557,47.2143658 C13.3428557,48.2422022 13.7829689,48.9757242 14.6641008,49.7101518 C15.6919372,50.4436738 17.0131824,50.7379882 18.6278364,50.7379882 C22.7382763,50.7379882 24.0595215,48.9766298 24.0595215,47.3619758 L24.0595215,40.7557499 L21.7104399,40.7557499 C21.7104399,40.7548444 21.7104399,47.3610702 21.7104399,47.3610702 Z" id="Shape"></path>
                    <path d="M34.4818729,41.7826807 L34.4818729,41.7826807 C33.6007409,41.0482532 32.5738101,40.7548444 31.1058606,40.7548444 L27.8765526,40.7548444 L27.8765526,37.378832 L25.5274711,37.378832 L25.5274711,46.7742526 C25.6741755,49.416743 27.4355338,50.7379882 30.9591562,50.7379882 C34.4818729,50.7379882 36.0974325,49.2700386 36.0974325,45.8940262 C36.2432313,43.9841523 35.8031181,42.8105171 34.4818729,41.7826807 M30.9582506,48.8290198 C28.3157602,48.8290198 28.0223514,46.920957 28.0223514,45.8931207 L28.0223514,42.6638127 L30.9582506,42.6638127 C33.6007409,42.6638127 33.8941497,44.7185799 33.8941497,45.8931207 C34.0417597,48.0945922 33.3073321,48.8290198 30.9582506,48.8290198" id="Shape"></path>
                    <path d="M10.2602521,38.4066684 L10.2602521,38.4066684 C9.23241574,37.6722408 8.05787497,37.378832 6.29651659,37.378832 L0.86483149,37.378832 L0.86483149,50.7370826 L6.58992539,50.7370826 C8.35128377,50.7370826 9.52582454,50.5903782 10.2602521,50.150265 C11.1413841,49.7101518 11.5814973,48.8290198 11.5814973,47.3610702 L11.5814973,40.7548444 C11.5814973,39.874618 11.1413841,38.993486 10.2602521,38.4066684 L10.2602521,38.4066684 Z M9.23241574,47.654479 C9.23241574,48.3889066 9.08571135,48.8290198 6.29651659,48.8290198 L3.36061744,48.8290198 L3.36061744,39.1401904 L6.44322099,39.1401904 C8.20457937,39.1401904 9.37912014,39.727008 9.37912014,40.7548444 L9.37912014,47.654479 L9.23241574,47.654479 L9.23241574,47.654479 Z" id="Shape"></path>
                    <path d="M51.3637458,38.993486 C52.0981734,38.993486 52.5382866,38.5533728 52.5382866,37.6722408 C52.5382866,36.9378132 52.0981734,36.4977 51.3637458,36.4977 C50.6293182,36.4977 50.189205,36.9378132 50.189205,37.6722408 C50.0425006,38.5533728 50.4826138,38.993486 51.3637458,38.993486 L51.3637458,38.993486 Z M50.189205,50.4436738 L52.5382866,50.4436738 L52.5382866,40.4614356 L50.189205,40.4614356 L50.189205,50.4436738 Z" id="Shape"></path>
                    <path d="M43.142866,50.7370826 C44.7575199,50.7370826 46.0787651,50.4436738 47.1066015,49.7092462 C47.9877335,49.1224286 48.4278467,48.2412966 48.4278467,47.2134603 L48.4278467,44.1308567 C48.4278467,42.8096115 47.9877335,41.7817751 47.1066015,41.341662 C46.3721739,40.9015488 45.1985387,40.7548444 43.4362748,40.7548444 L39.4725392,40.7548444 L39.4725392,42.6629071 L42.995256,42.6629071 C45.7844507,42.6629071 46.0778595,43.1030203 46.0778595,43.9841523 L46.0778595,43.9841523 L42.114124,43.9841523 C40.3527656,43.9841523 39.3249293,44.2775611 38.5914073,44.8652843 C38.0045897,45.4521019 37.7102753,46.1865295 37.7102753,47.5077746 C37.7111809,48.9757242 39.1791304,50.7370826 43.142866,50.7370826 M41.8216208,45.7464163 L46.0787651,45.7464163 L46.0787651,47.3610702 C46.0787651,48.2422022 44.9042243,48.9757242 43.142866,48.9757242 C41.6749164,48.9757242 39.913558,48.535611 39.913558,47.3610702 C40.0602624,46.6266427 40.2069668,45.7464163 41.8216208,45.7464163" id="Shape"></path>
                    <path d="M60.3181477,38.4066684 C59.4370157,38.993486 58.9969025,39.874618 58.9969025,40.9024543 L58.9969025,47.5086802 C58.9969025,48.8299254 59.4370157,49.8577618 60.3181477,50.297875 C61.0525753,50.7379882 62.2262104,50.8846926 63.9884744,50.8846926 L67.9522099,50.8846926 L67.9522099,49.1233342 L64.4294932,49.1233342 C61.493594,49.1233342 61.3468896,48.683221 61.3468896,47.9487934 L61.3468896,45.3063031 L65.3106252,45.3063031 L65.3106252,43.3982403 L61.3468896,43.3982403 L61.3468896,40.7557499 C61.3468896,39.7279136 62.5214304,39.141096 64.2827888,39.141096 L67.9531155,39.141096 L67.9531155,37.2330332 L64.2827888,37.2330332 C62.6663236,37.378832 61.345984,37.6722408 60.3181477,38.4066684" id="Shape"></path>
                    <path d="M87.3289632,41.7826807 L87.3289632,41.7826807 C86.4478312,42.3694983 86.007718,43.2506303 86.007718,44.2784667 L86.007718,47.3610702 C86.007718,48.6823154 86.4478312,49.7101518 87.3289632,50.150265 C88.0633908,50.5903782 89.237026,50.7370826 90.9992899,50.7370826 L94.9630255,50.7370826 L94.9630255,48.9757242 L91.4403087,48.9757242 C88.5044096,48.9757242 88.3577052,48.535611 88.3577052,47.8011834 L88.3577052,44.4251711 C88.3577052,43.3973347 89.5322459,42.8105171 91.2936043,42.8105171 L94.9639311,42.8105171 L94.9639311,40.7557499 L91.2936043,40.7557499 C89.6771392,40.7548444 88.355894,41.1949576 87.3289632,41.7826807" id="Shape"></path>
                    <path d="M105.67788,41.7826807 C104.796748,42.3694983 104.356635,43.2506303 104.356635,44.1317623 L104.356635,50.5912838 L106.705716,50.5912838 L106.705716,44.1317623 C106.705716,43.1039259 107.880257,42.5171083 109.641616,42.5171083 L110.081729,42.5171083 L110.081729,40.7557499 L109.641616,40.7557499 C107.880257,40.7548444 106.559012,41.1949576 105.67788,41.7826807" id="Shape"></path>
                    <rect id="Rectangle-path" x="69.7126627" y="37.378832" width="2.34908155" height="13.3582506"></rect>
                    <path d="M111.843993,50.7370826 L114.193074,50.7370826 L114.193074,40.7548444 L111.843993,40.7548444 L111.843993,50.7370826 Z M113.018534,39.2868948 C113.752961,39.2868948 114.193074,38.8467816 114.193074,37.9656496 C114.193074,37.2321276 113.752961,36.7911088 113.018534,36.7911088 C112.284106,36.7911088 111.843993,37.231222 111.843993,37.9656496 C111.697288,38.8467816 112.137402,39.2868948 113.018534,39.2868948 L113.018534,39.2868948 Z" id="Shape"></path>
                    <path d="M133.276419,47.654479 L133.276419,42.6638127 L136.212318,42.6638127 L136.212318,40.7557499 L133.276419,40.7557499 L133.276419,37.9665552 L130.927337,37.9665552 L130.927337,47.3619758 C130.927337,48.683221 131.36745,49.7110574 132.248582,50.1511706 C132.98301,50.5912838 134.156645,50.7379882 135.918909,50.7379882 L136.800041,50.7379882 L136.800041,48.9766298 L136.359928,48.9766298 C133.276419,48.9757242 133.276419,48.3889066 133.276419,47.654479" id="Shape"></path>
                    <path d="M99.0725598,47.654479 L99.0725598,42.6638127 L102.008459,42.6638127 L102.008459,40.7557499 L99.0725598,40.7557499 L99.0725598,37.9665552 L96.7234783,37.9665552 L96.7234783,47.3619758 C96.7234783,48.683221 97.1635915,49.7110574 98.0447234,50.1511706 C98.779151,50.5912838 99.9527862,50.7379882 101.71505,50.7379882 L102.596182,50.7379882 L102.596182,48.9766298 L102.156069,48.9766298 C99.2192642,48.9757242 99.0725598,48.3889066 99.0725598,47.654479" id="Shape"></path>
                    <path d="M146.341261,46.3332339 C146.341261,47.3610702 145.16672,47.9478878 143.405361,47.9478878 C141.937412,47.9478878 140.176054,47.5077746 140.176054,46.3332339 L140.176054,46.0398251 L140.176054,40.7548444 L137.826972,40.7548444 L137.826972,45.8931207 L137.826972,46.1865295 C137.826972,47.8011834 139.294922,49.5625418 143.258657,49.5625418 C144.433198,49.5625418 145.313424,49.4158374 146.194556,48.9757242 L146.194556,51.4715102 C146.194556,52.4993465 145.020015,53.0861641 143.258657,53.0861641 L140.762871,53.0861641 L140.762871,54.8475225 L143.405361,54.8475225 C145.020015,54.8475225 146.341261,54.5541137 147.222393,53.8196861 C148.103525,53.2328685 148.543638,52.3517366 148.543638,51.3239002 L148.543638,40.7548444 L146.194556,40.7548444 L146.194556,46.3332339 L146.341261,46.3332339 Z" id="Shape"></path>
                    <path d="M117.128068,41.7826807 L117.128068,41.7826807 C116.246936,42.3694983 115.806823,43.2506303 115.806823,44.2784667 L115.806823,47.3610702 C115.806823,48.6823154 116.246936,49.7101518 117.128068,50.150265 C117.862495,50.5903782 119.036131,50.7370826 120.798395,50.7370826 L124.76213,50.7370826 L124.76213,48.9757242 L121.239413,48.9757242 C118.303514,48.9757242 118.15681,48.535611 118.15681,47.8011834 L118.15681,44.4251711 C118.15681,43.3973347 119.331351,42.8105171 121.092709,42.8105171 L124.763036,42.8105171 L124.763036,40.7557499 L121.092709,40.7557499 C119.477149,40.7548444 118.155904,41.1949576 117.128068,41.7826807" id="Shape"></path>
                    <path d="M127.698029,39.2868948 C128.432457,39.2868948 128.87257,38.8467816 128.87257,37.9656496 C128.87257,37.2321276 128.432457,36.7911088 127.698029,36.7911088 C126.963602,36.7911088 126.523489,37.231222 126.523489,37.9656496 C126.523489,38.8467816 126.963602,39.2868948 127.698029,39.2868948 L127.698029,39.2868948 Z M126.523489,50.7370826 L128.87257,50.7370826 L128.87257,40.7548444 L126.523489,40.7548444 L126.523489,50.7370826 Z" id="Shape"></path>
                    <path d="M78.961379,40.7548444 C77.346725,40.7548444 76.0254798,41.0482532 74.9976434,41.7826807 C74.1165114,42.3694983 73.6763983,43.2506303 73.6763983,44.2784667 L73.6763983,47.3610702 C73.6763983,48.6823154 74.1165114,49.7101518 74.9976434,50.150265 C75.732071,50.5903782 76.9057062,50.7370826 78.6679702,50.7370826 L82.6317057,50.7370826 L82.6317057,48.9757242 L79.1089889,48.9757242 C76.1730898,48.9757242 76.0263854,48.535611 76.0263854,47.8011834 L76.0263854,47.654479 L79.9901209,47.654479 C81.7514793,47.654479 82.9260201,47.3610702 83.5128377,46.7733471 C84.0996553,46.1865295 84.3939696,45.4521019 84.3939696,44.2775611 C84.5397685,42.5162027 83.0718189,40.7548444 78.961379,40.7548444 M80.2826241,45.8931207 L76.0254798,45.8931207 L76.0254798,44.2784667 C76.0254798,43.2506303 77.2000206,42.6638127 78.961379,42.6638127 C80.4293285,42.6638127 82.0439825,43.1039259 82.0439825,44.2784667 C82.1906869,44.8652843 81.8972781,45.8931207 80.2826241,45.8931207" id="Shape"></path>
                    <path d="M219.739645,41.7826807 L219.739645,41.7826807 C218.858513,42.3694983 218.4184,43.2506303 218.4184,44.1317623 L218.4184,50.5912838 L220.767481,50.5912838 L220.767481,44.1317623 C220.767481,43.1039259 221.942022,42.5171083 223.70338,42.5171083 L224.143494,42.5171083 L224.143494,40.7557499 L223.70338,40.7557499 C221.941117,40.7548444 220.619871,41.1949576 219.739645,41.7826807" id="Shape"></path>
                    <path d="M201.243118,47.654479 L201.243118,42.6638127 L204.179017,42.6638127 L204.179017,40.7557499 L201.243118,40.7557499 L201.243118,37.9665552 L198.894037,37.9665552 L198.894037,47.3619758 C198.894037,48.683221 199.33415,49.7110574 200.215282,50.1511706 C200.949709,50.5912838 202.123344,50.7379882 203.885608,50.7379882 L204.76674,50.7379882 L204.76674,48.9766298 L204.326627,48.9766298 C201.389822,48.9757242 201.243118,48.3889066 201.243118,47.654479" id="Shape"></path>
                    <path d="M182.746591,47.3610702 C182.746591,48.8290198 180.544214,48.9757242 179.810692,48.9757242 C178.342742,48.9757242 177.314906,48.3889066 177.168202,47.5077746 L177.168202,37.9656496 L174.965825,37.9656496 L174.965825,47.3610702 C174.965825,48.8290198 172.763447,48.9757242 172.029925,48.9757242 C170.415271,48.9757242 169.387435,48.2412966 169.387435,47.3610702 L169.387435,37.9656496 L167.185058,37.9656496 L167.185058,47.3610702 C167.185058,48.2422022 167.625171,49.1224286 168.359599,49.7101518 C169.240731,50.4436738 170.561976,50.7379882 172.029925,50.7379882 C173.791284,50.7379882 175.112529,50.297875 175.993661,49.5634474 C176.140365,49.5634474 176.140365,49.7101518 176.140365,49.7101518 C177.021497,50.4445794 178.342742,50.7379882 179.810692,50.7379882 C183.627723,50.7379882 184.948968,48.9766298 184.948968,47.3619758 L184.948968,37.9665552 L182.746591,37.9665552 L182.746591,47.3610702 Z" id="Shape"></path>
                    <path d="M191.847697,50.7370826 C193.462351,50.7370826 194.783597,50.4436738 195.664729,49.7092462 C196.545861,49.1224286 196.985974,48.2412966 196.985974,47.2134603 L196.985974,44.1308567 C196.985974,42.8096115 196.545861,41.7817751 195.664729,41.341662 C194.931207,40.9015488 193.756666,40.7548444 191.994402,40.7548444 L188.030666,40.7548444 L188.030666,42.6629071 L191.553383,42.6629071 C194.489282,42.6629071 194.489282,43.1030203 194.489282,43.9841523 L194.489282,43.9841523 L190.525547,43.9841523 C188.764188,43.9841523 187.589648,44.2775611 187.00283,44.8652843 C186.416012,45.4521019 186.121698,46.1865295 186.121698,47.5077746 C186.416918,48.9757242 187.884868,50.7370826 191.847697,50.7370826 M190.526452,45.7464163 L194.783597,45.7464163 L194.783597,47.3610702 C194.783597,48.2422022 193.609056,48.9757242 191.847697,48.9757242 C190.233043,48.9757242 188.61839,48.535611 188.61839,47.3610702 C188.765094,46.6266427 188.911798,45.7464163 190.526452,45.7464163" id="Shape"></path>
                    <path d="M211.225356,40.7548444 C209.610702,40.7548444 208.289457,41.0482532 207.261621,41.7826807 C206.380489,42.3694983 205.940376,43.2506303 205.940376,44.2784667 L205.940376,47.3610702 C205.940376,48.6823154 206.380489,49.7101518 207.261621,50.150265 C207.996048,50.5903782 209.169684,50.7370826 210.931948,50.7370826 L214.895683,50.7370826 L214.895683,48.9757242 L211.225356,48.9757242 C208.436162,48.9757242 208.142753,48.535611 208.142753,47.8011834 L208.142753,47.654479 L212.106488,47.654479 C213.867847,47.654479 215.042387,47.3610702 215.629205,46.7733471 C216.216023,46.1856239 216.510337,45.4521019 216.510337,44.2775611 C216.657041,42.5162027 215.189092,40.7548444 211.225356,40.7548444 M212.546601,45.8931207 L208.289457,45.8931207 L208.289457,44.2784667 C208.289457,43.2506303 209.463998,42.6638127 211.225356,42.6638127 C212.693306,42.6638127 214.30796,43.1039259 214.30796,44.2784667 C214.30796,44.8652843 214.014551,45.8931207 212.546601,45.8931207" id="Shape"></path>
                    <path d="M160.433939,45.5997119 C160.580643,45.1595987 160.580643,44.8661899 160.580643,44.5718755 L162.78302,44.5718755 C162.78302,45.3063031 162.636316,45.8931207 162.489612,46.6266427 C162.196203,47.2134603 161.902794,47.9478878 161.60848,48.388001 L163.369838,50.7370826 L160.580643,50.7370826 L159.846216,49.7092462 C159.552807,50.1493594 159.111788,50.4436738 158.52497,50.5903782 C157.938153,50.7370826 157.35043,50.883787 156.763612,50.883787 C155.88248,50.883787 155.295662,50.7370826 154.855549,50.5903782 C154.415436,50.2969694 153.974417,50.0035606 153.681008,49.7092462 C153.3876,49.269133 153.240895,48.9748186 153.094191,48.5347054 C152.947486,48.0945922 152.947486,47.6535734 152.947486,47.3601647 C152.947486,46.6266427 153.240895,45.8922151 153.681914,45.3053975 C154.122027,44.7185799 154.70975,44.1308567 155.589977,43.6907435 L155.149864,42.9563159 C155.003159,42.6629071 154.856455,42.5162027 154.70975,42.2227939 C154.563046,42.0760895 154.563046,41.7826807 154.416342,41.6359763 C154.416342,41.4892719 154.269637,41.3425675 154.269637,41.0491587 C154.269637,40.9024543 154.269637,40.7557499 154.269637,40.4623411 C154.269637,40.0222279 154.416342,39.7279136 154.563046,39.2878004 C154.70975,38.9943916 155.003159,38.7009828 155.149864,38.4066684 C155.443272,38.1132596 155.736681,37.9665552 156.1777,37.8198508 C156.617813,37.6731464 157.058832,37.6731464 157.498945,37.6731464 C158.085763,37.6731464 158.526782,37.6731464 158.966895,37.8198508 C159.407008,37.9665552 159.701322,38.1132596 159.994731,38.4066684 C160.28814,38.7000772 160.434844,38.993486 160.581549,39.2878004 C160.728253,39.5812092 160.728253,40.0222279 160.728253,40.3156367 C160.728253,40.9024543 160.581549,41.4901775 160.141436,42.0769951 C159.701322,42.6638127 159.260304,43.1048315 158.380077,43.6916491 L160.28814,46.3341394 C160.286329,46.1865295 160.286329,45.8931207 160.433939,45.5997119 M155.442367,46.1865295 C155.295662,46.4799383 155.148958,46.920957 155.148958,47.2143658 C155.148958,47.3610702 155.148958,47.654479 155.295662,47.8011834 C155.295662,47.9478878 155.442367,48.2412966 155.589071,48.388001 C155.735776,48.5347054 155.88248,48.6814098 156.175889,48.8281142 C156.322593,48.9748186 156.616002,48.9748186 156.910316,48.9748186 C157.644744,48.9748186 158.084857,48.6814098 158.52497,48.0936866 L156.322593,45.0110831 C155.88248,45.4521019 155.589071,45.8931207 155.442367,46.1865295 M156.763612,41.9293851 L157.057021,42.3694983 L157.497134,41.9293851 C157.790543,41.6359763 157.937247,41.4892719 158.083952,41.1949576 C158.230656,40.9015488 158.230656,40.7548444 158.230656,40.4614356 C158.230656,40.1680268 158.083952,39.874618 157.937247,39.727008 C157.790543,39.5803036 157.497134,39.4335992 157.056115,39.4335992 C156.762706,39.4335992 156.469298,39.5803036 156.321688,39.727008 C156.028279,39.8737124 156.028279,40.1671212 156.028279,40.4614356 C156.029184,40.9015488 156.323499,41.3425675 156.763612,41.9293851" id="Shape"></path>
                </g>
            </g>
        </g>
    </g>
</svg>